{
  "categories": {
    "href": "https://api.spotify.com/v1/browse/categories?country=SE&locale=sv&offset=0&limit=20",
    "items": [
      {
        "href": "https://api.spotify.com/v1/browse/categories/toplists",
        "icons": [
          {
            "height": 275,
            "url": "https://t.scdn.co/media/derived/toplists_11160599e6a04ac5d6f2757f5511778f_0_0_275_275.jpg",
            "width": 275
          }
        ],
        "id": "toplists",
        "name": "Topplistor"
      },
      {
        "href": "https://api.spotify.com/v1/browse/categories/0JQ5DAqbMKFEC4WFtoNRpw",
        "icons": [
          {
            "height": 274,
            "url": "https://t.scdn.co/media/derived/pop-274x274_447148649685019f5e2a03a39e78ba52_0_0_274_274.jpg",
            "width": 274
          }
        ],
        "id": "0JQ5DAqbMKFEC4WFtoNRpw",
        "name": "Pop"
      },
      {
        "href": "https://api.spotify.com/v1/browse/categories/0JQ5DAqbMKFQ00XGBls6ym",
        "icons": [
          {
            "height": 274,
            "url": "https://t.scdn.co/media/original/hip-274_0a661854d61e29eace5fe63f73495e68_274x274.jpg",
            "width": 274
          }
        ],
        "id": "0JQ5DAqbMKFQ00XGBls6ym",
        "name": "Hiphop"
      },
      {
        "href": "https://api.spotify.com/v1/browse/categories/0JQ5DAqbMKFzHmL4tf05da",
        "icons": [
          {
            "height": 274,
            "url": "https://t.scdn.co/media/original/mood-274x274_976986a31ac8c49794cbdc7246fd5ad7_274x274.jpg",
            "width": 274
          }
        ],
        "id": "0JQ5DAqbMKFzHmL4tf05da",
        "name": "Humör"
      },
      {
        "href": "https://api.spotify.com/v1/browse/categories/0JQ5DAqbMKFCWjUTdzaG0e",
        "icons": [
          {
            "height": null,
            "url": "https://t.scdn.co/images/fe06caf056474bc58862591cd60b57fc.jpeg",
            "width": null
          }
        ],
        "id": "0JQ5DAqbMKFCWjUTdzaG0e",
        "name": "Indie"
      },
      {
        "href": "https://api.spotify.com/v1/browse/categories/0JQ5DAqbMKFHOzuVTgTizF",
        "icons": [
          {
            "height": 274,
            "url": "https://t.scdn.co/media/derived/edm-274x274_0ef612604200a9c14995432994455a6d_0_0_274_274.jpg",
            "width": 274
          }
        ],
        "id": "0JQ5DAqbMKFHOzuVTgTizF",
        "name": "Dance/electronic"
      },
      {
        "href": "https://api.spotify.com/v1/browse/categories/0JQ5DAqbMKFPw634sFwguI",
        "icons": [
          {
            "height": null,
            "url": "https://t.scdn.co/images/084155aeaa724ea1bd393a017d67b709",
            "width": null
          }
        ],
        "id": "0JQ5DAqbMKFPw634sFwguI",
        "name": "EQUAL"
      },
      {
        "href": "https://api.spotify.com/v1/browse/categories/0JQ5DAqbMKFFzDl7qN9Apr",
        "icons": [
          {
            "height": 274,
            "url": "https://t.scdn.co/media/derived/chill-274x274_4c46374f007813dd10b37e8d8fd35b4b_0_0_274_274.jpg",
            "width": 274
          }
        ],
        "id": "0JQ5DAqbMKFFzDl7qN9Apr",
        "name": "Chill"
      },
      {
        "href": "https://api.spotify.com/v1/browse/categories/0JQ5DAqbMKFDXXwE9BDJAr",
        "icons": [
          {
            "height": 274,
            "url": "https://t.scdn.co/media/derived/rock_9ce79e0a4ef901bbd10494f5b855d3cc_0_0_274_274.jpg",
            "width": 274
          }
        ],
        "id": "0JQ5DAqbMKFDXXwE9BDJAr",
        "name": "Rock"
      },
      {
        "href": "https://api.spotify.com/v1/browse/categories/0JQ5DAqbMKFAXlCG6QvYQ4",
        "icons": [
          {
            "height": null,
            "url": "https://t.scdn.co/media/links/workout-274x274.jpg",
            "width": null
          }
        ],
        "id": "0JQ5DAqbMKFAXlCG6QvYQ4",
        "name": "Träning"
      },
      {
        "href": "https://api.spotify.com/v1/browse/categories/0JQ5DAqbMKFFoimhOqWzLB",
        "icons": [
          {
            "height": null,
            "url": "https://t.scdn.co/images/664bb84f7a774e1eadb7c227aed98f3c",
            "width": null
          }
        ],
        "id": "0JQ5DAqbMKFFoimhOqWzLB",
        "name": "Barn och familj"
      },
      {
        "href": "https://api.spotify.com/v1/browse/categories/0JQ5DAqbMKFDkd668ypn6O",
        "icons": [
          {
            "height": 274,
            "url": "https://t.scdn.co/media/original/metal_27c921443fd0a5ba95b1b2c2ae654b2b_274x274.jpg",
            "width": 274
          }
        ],
        "id": "0JQ5DAqbMKFDkd668ypn6O",
        "name": "Metal"
      },
      {
        "href": "https://api.spotify.com/v1/browse/categories/0JQ5DAqbMKFIVNxQgRNSg0",
        "icons": [
          {
            "height": null,
            "url": "https://t.scdn.co/images/b611cf5145764c64b80e91ccd5f357c8",
            "width": null
          }
        ],
        "id": "0JQ5DAqbMKFIVNxQgRNSg0",
        "name": "Årtionden"
      },
      {
        "href": "https://api.spotify.com/v1/browse/categories/0JQ5DAqbMKFEZPnFQSFB1T",
        "icons": [
          {
            "height": 274,
            "url": "https://t.scdn.co/media/derived/r-b-274x274_fd56efa72f4f63764b011b68121581d8_0_0_274_274.jpg",
            "width": 274
          }
        ],
        "id": "0JQ5DAqbMKFEZPnFQSFB1T",
        "name": "R&B"
      },
      {
        "href": "https://api.spotify.com/v1/browse/categories/0JQ5DAqbMKFLb2EqgLtpjC",
        "icons": [
          {
            "height": null,
            "url": "https://t.scdn.co/images/3710b68657574bc79df14bd74629e5ac",
            "width": null
          }
        ],
        "id": "0JQ5DAqbMKFLb2EqgLtpjC",
        "name": "Välmående"
      },
      {
        "href": "https://api.spotify.com/v1/browse/categories/0JQ5DAqbMKFCbimwdOYlsl",
        "icons": [
          {
            "height": 274,
            "url": "https://t.scdn.co/media/original/genre-images-square-274x274_5e50d72b846a198fcd2ca9b3aef5f0c8_274x274.jpg",
            "width": 274
          }
        ],
        "id": "0JQ5DAqbMKFCbimwdOYlsl",
        "name": "Fokus"
      },
      {
        "href": "https://api.spotify.com/v1/browse/categories/0JQ5DAqbMKFNQ0fGp4byGU",
        "icons": [
          {
            "height": null,
            "url": "https://t.scdn.co/images/b505b01bbe0e490cbe43b07f16212892.jpeg",
            "width": null
          }
        ],
        "id": "0JQ5DAqbMKFNQ0fGp4byGU",
        "name": "Afro"
      },
      {
        "href": "https://api.spotify.com/v1/browse/categories/0JQ5DAqbMKFx0uLQR2okcc",
        "icons": [
          {
            "height": null,
            "url": "https://t.scdn.co/images/04da469dd7be4dab96659aa1fa9f0ac9.jpeg",
            "width": null
          }
        ],
        "id": "0JQ5DAqbMKFx0uLQR2okcc",
        "name": "Hemma"
      },
      {
        "href": "https://api.spotify.com/v1/browse/categories/0JQ5DAqbMKFRY5ok2pxXJ0",
        "icons": [
          {
            "height": 274,
            "url": "https://t.scdn.co/media/original/dinner_1b6506abba0ba52c54e6d695c8571078_274x274.jpg",
            "width": 274
          }
        ],
        "id": "0JQ5DAqbMKFRY5ok2pxXJ0",
        "name": "Matlagning och middag"
      },
      {
        "href": "https://api.spotify.com/v1/browse/categories/0JQ5DAqbMKFA6SOHvT3gck",
        "icons": [
          {
            "height": null,
            "url": "https://t.scdn.co/images/fada056dcfd54cd28faf80d62b7059c6.jpeg",
            "width": null
          }
        ],
        "id": "0JQ5DAqbMKFA6SOHvT3gck",
        "name": "Party"
      }
    ],
    "limit": 20,
    "next": "https://api.spotify.com/v1/browse/categories?country=SE&locale=sv&offset=20&limit=20",
    "offset": 0,
    "previous": null,
    "total": 44
  }
}